<?xml version="1.0" encoding="UTF-8"?>
<!DOCTYPE suite SYSTEM "https://testng.org/testng-1.0.dtd">
<suite verbose="0" name="Failed suite [TestNg]">
  <test thread-count="5" verbose="0" name="Command line test(failed)">
    <classes>
      <class name="TestNg">
        <methods>
          <include name="testSelenium"/>
          <include name="tearDown"/>
          <include name="setup"/>
        </methods>
      </class> <!-- TestNg -->
    </classes>
  </test> <!-- Command line test(failed) -->
</suite> <!-- Failed suite [TestNg] -->
